0.00000000000,0.00000000000,0.00000000000,0.00000000000,0.00000000000,0.00000000000,0.00000000000,0.00000000000,0.00000000000,0.00000000000,0.00000000000
0.100000001490,0.800000011921E-01,0.600000008941E-01,0.400000005960E-01,0.200000002980E-01,0.00000000000,-0.200000002980E-01,-0.400000005960E-01,-0.600000008941E-01,0.00000000000,0.00000000000
0.100000001490,0.800000011921E-01,0.600000008941E-01,0.400000005960E-01,0.200000002980E-01,0.00000000000,-0.200000002980E-01,-0.400000005960E-01,-0.600000008941E-01,0.00000000000,0.00000000000
0.100000001490,0.800000011921E-01,0.600000008941E-01,0.400000005960E-01,0.200000002980E-01,0.00000000000,-0.200000002980E-01,-0.400000005960E-01,-0.600000008941E-01,0.00000000000,0.00000000000
0.100000001490,0.800000011921E-01,0.600000008941E-01,0.400000005960E-01,0.200000002980E-01,0.00000000000,-0.200000002980E-01,-0.400000005960E-01,-0.600000008941E-01,0.00000000000,0.00000000000
0.100000001490,0.800000011921E-01,0.600000008941E-01,0.400000005960E-01,0.200000002980E-01,0.00000000000,-0.200000002980E-01,-0.400000005960E-01,-0.600000008941E-01,0.00000000000,0.00000000000
0.100000001490,0.800000011921E-01,0.600000008941E-01,0.400000005960E-01,0.200000002980E-01,0.00000000000,-0.200000002980E-01,-0.400000005960E-01,-0.600000008941E-01,0.00000000000,0.00000000000
0.100000001490,0.800000011921E-01,0.600000008941E-01,0.400000005960E-01,0.200000002980E-01,0.00000000000,-0.200000002980E-01,-0.400000005960E-01,-0.600000008941E-01,0.00000000000,0.00000000000
0.100000001490,0.800000011921E-01,0.600000008941E-01,0.400000005960E-01,0.200000002980E-01,0.00000000000,-0.200000002980E-01,-0.400000005960E-01,-0.600000008941E-01,0.00000000000,0.00000000000
0.00000000000,0.00000000000,0.00000000000,0.00000000000,0.00000000000,0.00000000000,0.00000000000,0.00000000000,0.00000000000,0.00000000000,0.00000000000
